…
tmp
~~~
{: .language-r}



~~~
# A tibble: 204 × 8
# Groups:   expression [51]
   expression         data     model  term     estimate std.e…¹ stati…²  p.value
   <chr>              <list>   <list> <chr>       <dbl>   <dbl>   <dbl>    <dbl>
 1 ENSMUSG00000020680 <tibble> <lm>   (Interc… -7.37e-1 0.543    -1.36  1.75e- 1
 2 ENSMUSG00000020680 <tibble> <lm>   sexM      3.87e-1 0.0884    4.38  1.55e- 5
 3 ENSMUSG00000020680 <tibble> <lm>   DOwave   -3.88e-1 0.0398   -9.76  3.49e-20
 4 ENSMUSG00000020680 <tibble> <lm>   diet_da…  1.19e-2 0.00415   2.87  4.33e- 3
 5 ENSMUSG00000029563 <tibble> <lm>   (Interc… -2.31e-1 0.602    -0.384 7.01e- 1
 6 ENSMUSG00000029563 <tibble> <lm>   sexM      4.05e-1 0.0981    4.13  4.45e- 5
 7 ENSMUSG00000029563 <tibble> <lm>   DOwave   -3.86e-2 0.0441   -0.876 3.82e- 1
 8 ENSMUSG00000029563 <tibble> <lm>   diet_da…  9.44e-4 0.00460   0.205 8.37e- 1
 9 ENSMUSG00000041977 <tibble> <lm>   (Interc… -1.89e+0 0.595    -3.17  1.63e- 3
10 ENSMUSG00000041977 <tibble> <lm>   sexM      4.97e-1 0.0969    5.13  4.63e- 7
# … with 194 more rows, and abbreviated variable names ¹​std.error, ²​statistic
…
